v2progress
…
## See spec(...) for full column specifications.

make subsets of data

complete[1:15]

## # A tibble: 17,994 x 15
##        ID name   full_name club  club_logo special   age league birth_date
##     <int> <chr>  <chr>     <chr> <chr>       <int> <int> <chr>  <date>    
##  1  20801 Crist~ C. Ronal~ Real~ https://~    2228    32 Spani~ 1985-02-05
##  2 158023 L. Me~ Lionel M~ FC B~ https://~    2158    30 Spani~ 1987-06-24
##  3 190871 Neymar Neymar d~ Pari~ https://~    2100    25 Frenc~ 1992-02-05
##  4 176580 L. Su~ Luis Su~ FC B~ https://~    2291    30 Spani~ 1987-01-24
##  5 167495 M. Ne~ Manuel N~ FC B~ https://~    1493    31 Germa~ 1986-03-27
##  6 188545 R. Le~ Robert L~ FC B~ https://~    2146    28 Germa~ 1988-08-21
##  7 193080 De Gea David De~ Manc~ https://~    1458    26 Engli~ 1990-11-07
##  8 183277 E. Ha~ Eden Haz~ Chel~ https://~    2096    26 Engli~ 1991-01-07
##  9 182521 T. Kr~ Toni Kro~ Real~ https://~    2165    27 Spani~ 1990-01-04
## 10 167664 G. Hi~ Gonzalo ~ Juve~ https://~    1961    29 Itali~ 1987-12-10
## # ... with 17,984 more rows, and 6 more variables: height_cm <dbl>,
## #   weight_kg <dbl>, body_type <chr>, real_face <chr>, flag <chr>,
## #   nationality <chr>
…
dplyr::mutate(complete, bmi = height_cm/weight_kg)

## # A tibble: 17,994 x 186
##        ID name   full_name club  club_logo special   age league birth_date
##     <int> <chr>  <chr>     <chr> <chr>       <int> <int> <chr>  <date>    
##  1  20801 Crist~ C. Ronal~ Real~ https://~    2228    32 Spani~ 1985-02-05
##  2 158023 L. Me~ Lionel M~ FC B~ https://~    2158    30 Spani~ 1987-06-24
##  3 190871 Neymar Neymar d~ Pari~ https://~    2100    25 Frenc~ 1992-02-05
##  4 176580 L. Su~ Luis Su~ FC B~ https://~    2291    30 Spani~ 1987-01-24
##  5 167495 M. Ne~ Manuel N~ FC B~ https://~    1493    31 Germa~ 1986-03-27
##  6 188545 R. Le~ Robert L~ FC B~ https://~    2146    28 Germa~ 1988-08-21
##  7 193080 De Gea David De~ Manc~ https://~    1458    26 Engli~ 1990-11-07
##  8 183277 E. Ha~ Eden Haz~ Chel~ https://~    2096    26 Engli~ 1991-01-07
##  9 182521 T. Kr~ Toni Kro~ Real~ https://~    2165    27 Spani~ 1990-01-04
## 10 167664 G. Hi~ Gonzalo ~ Juve~ https://~    1961    29 Itali~ 1987-12-10
## # ... with 17,984 more rows, and 177 more variables: height_cm <dbl>,
## #   weight_kg <dbl>, body_type <chr>, real_face <chr>, flag <chr>,
## #   nationality <chr>, photo <chr>, eur_value <dbl>, eur_wage <dbl>,
## #   eur_release_clause <dbl>, overall <int>, potential <int>, pac <int>,
## #   sho <int>, pas <int>, dri <int>, def <int>, phy <int>,
## #   international_reputation <int>, skill_moves <int>, weak_foot <int>,
## #   work_rate_att <chr>, work_rate_def <chr>, preferred_foot <chr>,
## #   crossing <int>, finishing <int>, heading_accuracy <int>,
## #   short_passing <int>, volleys <int>, dribbling <int>, curve <int>,
…
stars <- filter(complete, international_reputation>2)
super_star <- filter(stars, international_reputation>3)
rmd <- filter(complete, club == "Real Madrid CF")
barc <- filter(complete, club == "FC Barcelona")
data.combined <- rbind(rmd, barc)%>%
  select(name, age, league, body_type)

apply to all skills in dataset to see which have large positive or negative correlations

skills <- select(complete, 34:67)%>%
  cor()%>%
  as_tibble
  mutate(skills, skill = colnames(skills))

## # A tibble: 34 x 35
##    crossing finishing heading_accuracy short_passing volleys dribbling
##       <dbl>     <dbl>            <dbl>         <dbl>   <dbl>     <dbl>
##  1    1.00      0.648            0.472         0.809   0.686     0.852
##  2    0.648     1.00             0.472         0.659   0.879     0.821
##  3    0.472     0.472            1.00          0.633   0.503     0.543
##  4    0.809     0.659            0.633         1.00    0.695     0.836
##  5    0.686     0.879            0.503         0.695   1.00      0.809
##  6    0.852     0.821            0.543         0.836   0.809     1.00 
##  7    0.830     0.753            0.446         0.777   0.801     0.841
##  8    0.762     0.692            0.423         0.740   0.745     0.753
##  9    0.756     0.503            0.511         0.895   0.563     0.711
## 10    0.839     0.785            0.652         0.905   0.793     0.933
## # ... with 24 more rows, and 29 more variables: curve <dbl>,
## #   free_kick_accuracy <dbl>, long_passing <dbl>, ball_control <dbl>,
## #   acceleration <dbl>, sprint_speed <dbl>, agility <dbl>,
## #   reactions <dbl>, balance <dbl>, shot_power <dbl>, jumping <dbl>,
## #   stamina <dbl>, strength <dbl>, long_shots <dbl>, aggression <dbl>,
## #   interceptions <dbl>, positioning <dbl>, vision <dbl>, penalties <dbl>,
## #   composure <dbl>, marking <dbl>, standing_tackle <dbl>,
## #   sliding_tackle <dbl>, gk_diving <dbl>, gk_handling <dbl>,
## #   gk_kicking <dbl>, gk_positioning <dbl>, gk_reflexes <dbl>, skill <chr>
…
